{    "Logging": {
    "loggers": [
      {
        "name": "kea-ddns",
        "output_options": [
          {
            "output": "stdout"
          }
        ],
        "severity": "info",
        "debuglevel": 5
      }
    ]
  },
"DhcpDdns": {
  "ip-address": "{{ ddns_upstream_host | default('127.0.0.1') }}",
  "port": "{{ ddns_upstream_port| default('53001') }},
  "dns-server-timeout": 100,

  "tsig-keys": [
      {% for entry in dnssec %}{% if entry.type == "tsig" %}{
      "name": "{{ entry.name }}__{{ entry.type }}",
      "algorithm": "{{ entry['algo'] }}",
      "secret": "{{ entry['private_key'] }}"
    }{% if not loop.last %},{% endif %}{% endif %}{% endfor %}
  ],
  "reverse-ddns": {
    "ddns-domains": [
      {% if subnets_v4 is defined and subnets_v4 | length >= 1 %}{% for subnet in subnets_v4 %}{
{% set r_subnet = subnet.network_v4[:-1].split('.') | reverse | join('.') %}
         "name": "{{ r_subnet[1:] + '.in-addr.arpa.' }}", 
	 {% for zone_net in zones %}{% if zone_net.domain_name.startswith(r_subnet[1:]) %} 
         "key-name": "{% for key in zone_net.keyname__type %}{% if key.endswith('.in-addr.arpa.__tsig') %}{{ key }}{% endif %}{% endfor %}",{% endif %}{% endfor %}{# right now, only one tsig can be used, will break if more than one is in the list #}
	 
         "dns-servers": [{
           "ip-address": "{{ subnet.dns_server |default(dns_server) }}",
           "port": 53
	 }]
	}{% if not loop.last %},{# end one v4 subnet #}{% endif %}{% endfor %}{% endif %}
	{% if subnets_v6 is defined and subnets_v6 | length >= 5 %},{# TODO add detection if only subnetv6 is being done, with NO v4 #}{% for subnet in subnets_v6 %}{
	{# lets obtain the reversed subnet and set it, instead of looping multiple times #}{% set reversed_subnet_v6 = [] %}
         {%- for six in subnet['network_v6'].split(':') |reverse -%}
	 {% set _ = reversed_subnet_v6.append( six + ".") %}
	 {% if loop.last %}{% set _ = reversed_subnet_v6.append("ip6.arpa.") %}{% endif %}{%- endfor -%}
         "name": "{{ reversed_subnet_v6 }}",
	 {% for zone_net in zones %}{% if zone_net.domain_name in reversed_subnet_v6 %}
         "key-name": "{{ zone_net.keyname__type | select('match','*__tsig' ) }}",{% endif %}{% endfor %}{# right now, only one tsig can be used, will break if more than one is in the list #}
         "dns-servers": [{
           "ip-address": "{{ subnet.dns_server | default(dns_server) }}",
           "port": 53
	 }] }{% if not loop.last %},{% endif %}{% endfor %}{% else %}{# end #}{% endif %}
        ]
    },
  "forward-ddns": {
    "ddns-domains": [
      {% if subnets_v4 is defined and subnets_v4 | length >= 1 %}{% for subnet in subnets_v4 %}
      {% for zone_net in zones %}{% if subnet.domain.startswith(zone_net.domain_name) %}
      {
         "name": "{{ zone_net.domain_name }}",
         "key-name": "{% for key in zone_net.keyname__type %}{% if key.endswith('.__tsig') %}{{ key }}{% endif %}{% endfor %}",
	 {# right now, only one tsig can be used, will break if more than one is in the list #}
         "dns-servers": [{
           "ip-address": "{{ subnet.dns_server |default(dns_server) }}",
           "port": 53
	 }]
      }
	{% endif %} // end subnet domain check
	{%- endfor %}{%- if not loop.last and loop.revindex > 1 %},{# end one v4 subnet #}{% endif %}{% endfor %}{% endif %}

        ]
    }
  }
}
